{ "équipes":
  {
      "johnny": {"machine": "machine1", "avatar": "ma_gueule.png"},
      "billy": {"machine" : "machine2", "avatar": "shakespeare.png"},
      "mary": {"machine": "machine3", "avatar": "shelley.png"}
  },

  "paramètres":
  {
      "map": "test.map",
      "n_tours": 12
  }
}
